

请求参数
{
	"currentPage":1,
	"pageSize":10
}



返回数据

{
	"code":0,
	"data":{
		"pageSize":1,
		"count":100,
		"totalPage":10,
		"list":[
			{
				"title":"文章标题",
				"date":"2018-07-09 10:80",
				"id":"asdasd123123123ads"
			},
			{
				"title":"文章标题",
				"date":"2018-07-09 10:80",
				"id":"asdasd123123123ads"
			}
		]
	},
	"msg":""
}
